^C:\USERS\MILLE\ONEDRIVE\DOCUMENTS\VISUAL STUDIO 2015\PROJECTS\PROJECT2\PROJECT2\DISPLAY.CPP
/c /I.\INCLUDE /ZI /nologo /W3 /WX- /Od /Oy- /D WIN32 /D _DEBUG /D _CONSOLE /D _UNICODE /D UNICODE /Gm /EHsc /RTC1 /MDd /GS /fp:precise /Zc:wchar_t /Zc:forScope /Zc:inline /Fo"DEBUG\\" /Fd"DEBUG\VC140.PDB" /Gd /TP /analyze- C:\USERS\MILLE\ONEDRIVE\DOCUMENTS\VISUAL STUDIO 2015\PROJECTS\PROJECT2\PROJECT2\DISPLAY.CPP
^C:\USERS\MILLE\ONEDRIVE\DOCUMENTS\VISUAL STUDIO 2015\PROJECTS\PROJECT2\PROJECT2\MAIN.CPP
/c /I.\INCLUDE /ZI /nologo /W3 /WX- /Od /Oy- /D WIN32 /D _DEBUG /D _CONSOLE /D _UNICODE /D UNICODE /Gm /EHsc /RTC1 /MDd /GS /fp:precise /Zc:wchar_t /Zc:forScope /Zc:inline /Fo"DEBUG\\" /Fd"DEBUG\VC140.PDB" /Gd /TP /analyze- C:\USERS\MILLE\ONEDRIVE\DOCUMENTS\VISUAL STUDIO 2015\PROJECTS\PROJECT2\PROJECT2\MAIN.CPP
^C:\USERS\MILLE\ONEDRIVE\DOCUMENTS\VISUAL STUDIO 2015\PROJECTS\PROJECT2\PROJECT2\MAT4.CPP
/c /I.\INCLUDE /ZI /nologo /W3 /WX- /Od /Oy- /D WIN32 /D _DEBUG /D _CONSOLE /D _UNICODE /D UNICODE /Gm /EHsc /RTC1 /MDd /GS /fp:precise /Zc:wchar_t /Zc:forScope /Zc:inline /Fo"DEBUG\\" /Fd"DEBUG\VC140.PDB" /Gd /TP /analyze- C:\USERS\MILLE\ONEDRIVE\DOCUMENTS\VISUAL STUDIO 2015\PROJECTS\PROJECT2\PROJECT2\MAT4.CPP
^C:\USERS\MILLE\ONEDRIVE\DOCUMENTS\VISUAL STUDIO 2015\PROJECTS\PROJECT2\PROJECT2\MATERIAL.CPP
/c /I.\INCLUDE /ZI /nologo /W3 /WX- /Od /Oy- /D WIN32 /D _DEBUG /D _CONSOLE /D _UNICODE /D UNICODE /Gm /EHsc /RTC1 /MDd /GS /fp:precise /Zc:wchar_t /Zc:forScope /Zc:inline /Fo"DEBUG\\" /Fd"DEBUG\VC140.PDB" /Gd /TP /analyze- C:\USERS\MILLE\ONEDRIVE\DOCUMENTS\VISUAL STUDIO 2015\PROJECTS\PROJECT2\PROJECT2\MATERIAL.CPP
^C:\USERS\MILLE\ONEDRIVE\DOCUMENTS\VISUAL STUDIO 2015\PROJECTS\PROJECT2\PROJECT2\MESH.CPP
/c /I.\INCLUDE /ZI /nologo /W3 /WX- /Od /Oy- /D WIN32 /D _DEBUG /D _CONSOLE /D _UNICODE /D UNICODE /Gm /EHsc /RTC1 /MDd /GS /fp:precise /Zc:wchar_t /Zc:forScope /Zc:inline /Fo"DEBUG\\" /Fd"DEBUG\VC140.PDB" /Gd /TP /analyze- C:\USERS\MILLE\ONEDRIVE\DOCUMENTS\VISUAL STUDIO 2015\PROJECTS\PROJECT2\PROJECT2\MESH.CPP
^C:\USERS\MILLE\ONEDRIVE\DOCUMENTS\VISUAL STUDIO 2015\PROJECTS\PROJECT2\PROJECT2\OBJECT.CPP
/c /I.\INCLUDE /ZI /nologo /W3 /WX- /Od /Oy- /D WIN32 /D _DEBUG /D _CONSOLE /D _UNICODE /D UNICODE /Gm /EHsc /RTC1 /MDd /GS /fp:precise /Zc:wchar_t /Zc:forScope /Zc:inline /Fo"DEBUG\\" /Fd"DEBUG\VC140.PDB" /Gd /TP /analyze- C:\USERS\MILLE\ONEDRIVE\DOCUMENTS\VISUAL STUDIO 2015\PROJECTS\PROJECT2\PROJECT2\OBJECT.CPP
^C:\USERS\MILLE\ONEDRIVE\DOCUMENTS\VISUAL STUDIO 2015\PROJECTS\PROJECT2\PROJECT2\PIXELMAP.CPP
/c /I.\INCLUDE /ZI /nologo /W3 /WX- /Od /Oy- /D WIN32 /D _DEBUG /D _CONSOLE /D _UNICODE /D UNICODE /Gm /EHsc /RTC1 /MDd /GS /fp:precise /Zc:wchar_t /Zc:forScope /Zc:inline /Fo"DEBUG\\" /Fd"DEBUG\VC140.PDB" /Gd /TP /analyze- C:\USERS\MILLE\ONEDRIVE\DOCUMENTS\VISUAL STUDIO 2015\PROJECTS\PROJECT2\PROJECT2\PIXELMAP.CPP
^C:\USERS\MILLE\ONEDRIVE\DOCUMENTS\VISUAL STUDIO 2015\PROJECTS\PROJECT2\PROJECT2\VEC4.CPP
/c /I.\INCLUDE /ZI /nologo /W3 /WX- /Od /Oy- /D WIN32 /D _DEBUG /D _CONSOLE /D _UNICODE /D UNICODE /Gm /EHsc /RTC1 /MDd /GS /fp:precise /Zc:wchar_t /Zc:forScope /Zc:inline /Fo"DEBUG\\" /Fd"DEBUG\VC140.PDB" /Gd /TP /analyze- C:\USERS\MILLE\ONEDRIVE\DOCUMENTS\VISUAL STUDIO 2015\PROJECTS\PROJECT2\PROJECT2\VEC4.CPP
^C:\USERS\MILLE\ONEDRIVE\DOCUMENTS\VISUAL STUDIO 2015\PROJECTS\PROJECT2\PROJECT2\MESHDRAW.CPP
/c /I.\INCLUDE /ZI /nologo /W3 /WX- /Od /Oy- /D WIN32 /D _DEBUG /D _CONSOLE /D _UNICODE /D UNICODE /Gm /EHsc /RTC1 /MDd /GS /fp:precise /Zc:wchar_t /Zc:forScope /Zc:inline /Fo"DEBUG\\" /Fd"DEBUG\VC140.PDB" /Gd /TP /analyze- C:\USERS\MILLE\ONEDRIVE\DOCUMENTS\VISUAL STUDIO 2015\PROJECTS\PROJECT2\PROJECT2\MESHDRAW.CPP
^C:\USERS\MILLE\ONEDRIVE\DOCUMENTS\VISUAL STUDIO 2015\PROJECTS\PROJECT2\PROJECT2\SHADER.CPP
/c /I.\INCLUDE /ZI /nologo /W3 /WX- /Od /Oy- /D WIN32 /D _DEBUG /D _CONSOLE /D _UNICODE /D UNICODE /Gm /EHsc /RTC1 /MDd /GS /fp:precise /Zc:wchar_t /Zc:forScope /Zc:inline /Fo"DEBUG\\" /Fd"DEBUG\VC140.PDB" /Gd /TP /analyze- C:\USERS\MILLE\ONEDRIVE\DOCUMENTS\VISUAL STUDIO 2015\PROJECTS\PROJECT2\PROJECT2\SHADER.CPP
^C:\USERS\MILLE\ONEDRIVE\DOCUMENTS\VISUAL STUDIO 2015\PROJECTS\PROJECT2\PROJECT2\STB_IMAGE.C
/c /I.\INCLUDE /ZI /nologo /W3 /WX- /Od /Oy- /D WIN32 /D _DEBUG /D _CONSOLE /D _UNICODE /D UNICODE /Gm /EHsc /RTC1 /MDd /GS /fp:precise /Zc:wchar_t /Zc:forScope /Zc:inline /Fo"DEBUG\\" /Fd"DEBUG\VC140.PDB" /Gd /TC /analyze- C:\USERS\MILLE\ONEDRIVE\DOCUMENTS\VISUAL STUDIO 2015\PROJECTS\PROJECT2\PROJECT2\STB_IMAGE.C
^C:\USERS\MILLE\ONEDRIVE\DOCUMENTS\VISUAL STUDIO 2015\PROJECTS\PROJECT2\PROJECT2\TEXTURE.CPP
/c /I.\INCLUDE /ZI /nologo /W3 /WX- /Od /Oy- /D WIN32 /D _DEBUG /D _CONSOLE /D _UNICODE /D UNICODE /Gm /EHsc /RTC1 /MDd /GS /fp:precise /Zc:wchar_t /Zc:forScope /Zc:inline /Fo"DEBUG\\" /Fd"DEBUG\VC140.PDB" /Gd /TP /analyze- C:\USERS\MILLE\ONEDRIVE\DOCUMENTS\VISUAL STUDIO 2015\PROJECTS\PROJECT2\PROJECT2\TEXTURE.CPP
^C:\USERS\MILLE\ONEDRIVE\DOCUMENTS\VISUAL STUDIO 2015\PROJECTS\PROJECT2\PROJECT2\OBJLOADER.CPP
/c /I.\INCLUDE /ZI /nologo /W3 /WX- /Od /Oy- /D WIN32 /D _DEBUG /D _CONSOLE /D _UNICODE /D UNICODE /Gm /EHsc /RTC1 /MDd /GS /fp:precise /Zc:wchar_t /Zc:forScope /Zc:inline /Fo"DEBUG\\" /Fd"DEBUG\VC140.PDB" /Gd /TP /analyze- C:\USERS\MILLE\ONEDRIVE\DOCUMENTS\VISUAL STUDIO 2015\PROJECTS\PROJECT2\PROJECT2\OBJLOADER.CPP
